[gd_resource type="Resource" script_class="Dialogue" load_steps=2 format=3 uid="uid://dr0x1a50d0aoi"]

[ext_resource type="Script" path="res://scripts/dialogue.gd" id="1_kahsq"]

[resource]
script = ExtResource("1_kahsq")
dialogue_name = "Cotton Candy Old Man"
dialogue_panels = PackedStringArray("Hi, I\'m Alfred!", "Do you want a cotton candy?", "I can give you one if you can defeat me. AH AH AH!")
